{
  "$schema": "http://json-schema.org/draft-04/schema#",
  "type": "object",
  "properties": {
    "recipe": {
      "type": "object",
      "properties": {
        "publisher": {
          "type": "string"
        },
        "f2f_url": {
          "type": "string"
        },
        "ingredients": {
          "type": "array",
          "items": [
            {
              "type": "string"
            },
            {
              "type": "string"
            },
            {
              "type": "string"
            },
            {
              "type": "string"
            },
            {
              "type": "string"
            },
            {
              "type": "string"
            }
          ]
        },
        "source_url": {
          "type": "string"
        },
        "recipe_id": {
          "type": "string"
        },
        "image_url": {
          "type": "string"
        },
        "social_rank": {
          "type": "number"
        },
        "publisher_url": {
          "type": "string"
        },
        "title": {
          "type": "string"
        }
      }
    }
  }
}