{
  "$schema": "http://json-schema.org/draft-04/schema#",
  "type": "object",
  "properties": {
    "count": {
      "type": "integer"
    },
    "recipes": {
      "type": "array",
      "items": [
        {
          "type": "object",
          "properties": {
            "publisher": {
              "type": "string"
            },
            "social_rank": {
              "type": "number"
            },
            "f2f_url": {
              "type": "string"
            },
            "publisher_url": {
              "type": "string"
            },
            "title": {
              "type": "string"
            },
            "source_url": {
              "type": "string"
            },
            "page": {
              "type": "integer"
            }
          }
        }
      ]
    }
  }
}